%YAML 1.1
%TAG !u! tag:unity3d.com,2011:
--- !u!114 &11400000
MonoBehaviour:
  m_ObjectHideFlags: 0
  m_CorrespondingSourceObject: {fileID: 0}
  m_PrefabInstance: {fileID: 0}
  m_PrefabAsset: {fileID: 0}
  m_GameObject: {fileID: 0}
  m_Enabled: 1
  m_EditorHideFlags: 0
  m_Script: {fileID: 11500000, guid: 4cb756170f00bc242abe39651d980b3a, type: 3}
  m_Name: Jewelry Type 007
  m_EditorClassIdentifier: 
  IconOn: {fileID: 21300000, guid: b64e1f24b9bdf33428eedc87d91c89c9, type: 3}
  IconOff: {fileID: 21300000, guid: 04ee9bb8d3883154788fabe6d7f3e5c1, type: 3}
  _type: 6
  _nameKey: JewelryName.Shoes
  _position: {x: 174, y: -355, z: 0}
