%YAML 1.1
%TAG !u! tag:unity3d.com,2011:
--- !u!114 &11400000
MonoBehaviour:
  m_ObjectHideFlags: 0
  m_CorrespondingSourceObject: {fileID: 0}
  m_PrefabInstance: {fileID: 0}
  m_PrefabAsset: {fileID: 0}
  m_GameObject: {fileID: 0}
  m_Enabled: 1
  m_EditorHideFlags: 0
  m_Script: {fileID: 11500000, guid: 888cf6f4cca7466b9b45f1064a95071b, type: 3}
  m_Name: Emoji Question 1
  m_EditorClassIdentifier: 
  Id: 8f6d1007-9581-4eb7-a244-20091ecbda5d
  Name: Emoji 1 name
  Description: Emoji 1 desc
  Variants:
  - A - Watermelon or Candy
  - B - Very Sweet
  - C - Piece of Watermelon
  - D - Watermelon Sugar
  CorrectAnswer: D - Watermelon Sugar
  EmojiSequence:
  - <sprite=17>
  - <sprite=25>
