{
  "ru": {
    "description_1": "Сегодня ты должен присутствовать на репетиции Джой",
    "description_2": "Она готовила новый номер",
    "description_3": "Он довольно сложный, но зрители будут просто в восторге!",
    "description_4": "Тем более, возможно, это будет ее последнее выступление в этом баре",
    "description_5": "Благодаря ее популярности, ты смог выбить ей турне по лучшим площадкам страны",
    "description_6": "Она давно заслужила большего своим талантом и упорным трудом",
    "description_7": "Тебе неизвестно, вернется она или же устремится к новым вершинам",
    "description_8": "От этого тебе печально, но эта печаль приятная",
    "description_9": "Ведь ты помог такой талантливой девушке пробиться в мир эстрады",
    "description_10": "Не вечно же ей работать в этом баре?",
    "description_11": "Вы так давно знакомы, но перед встречей с ней ты волновался",
    "description_12": "Да еще и сцены из того сна постоянно всплывали перед глазами",
    "description_13": "Она такая красотка, а ты всё-таки мужчина",
    "description_14": "Почему бы и не…",
    "description_15": "Нет, подкатывать к подопечной - очень плохая идея",
    "description_16": "Твой сон, конечно, произвел на тебя огромное впечатление",
    "description_17": "И будь у тебя возможность воплотить его в реальности…",
    "description_18": "Ох",
    "description_19": "Но, наверное, снам лучше оставаться снами",
    "description_20": "Надо просто сосредоточиться на работе",
    "description_21": "Караоке бар сегодня закрыт для посетителей",
    "description_22": "Весь день тут кипела подготовка к новому выступлению, но к вечеру все уже разошлись, так что он встречает тебя совсем пустым и тихим",
    "description_23": "Ты только слышишь, как со сцены доносится пение Джой",
    "description_24": "Она как сирена манит тебя своим голосом, и твое сердце начинает биться чаще",
    "description_25": "“Так, соберись”",
    "description_26": "Ты проходишь по коридору мимо гардероба прямо к сцене",
    "description_27": "Джой так увлечена пением, что не замечает тебя",
    "description_28": "Чем ты и решаешь воспользоваться, бесстыдно рассматривая ее из темноты",
    "description_29": "Какая же она красивая…",
    "description_30": "Ее кожа будто искрится в свете софитов, а платье очерчивает фигуру так, что ты не можешь оторваться",
    "description_31": "Она поет, прикрыв глаза, и двигается на сцене так, как будто на нее уже смотрят десятки глаз",
    "description_32": "Но здесь только ты, и ты сегодня будешь ее единственным зрителем",
    "description_33": "И ты растворяешься в ее голосе, чтобы насладиться им, возможно, в последний раз",
    "description_34": "Когда она заканчивает, ты делаешь несколько хлопков в ладоши",
    "description_35_1": "Джой вздрагивает от неожиданности, распахнув глаза, но при виде тебя на её лице сразу появляется улыбка",
    "she_1": "Ты опоздал!",
    "person_answer_1_1": "Я увидел главную часть выступления",
    "person_answer_1_2": "Прости, я спешил как мог",
    "person_answer_1_3": "У меня были другие дела",
    "she_1_1": "Пропустил самое интересное",
    "she_2": "Что же тебя так задержало?",
    "you_1": "Работа",
    "description_35_2": "Ты врешь ей, отчего тебе неловко, но не можешь же ты признаться, что оттягивал время прихода в бар, потому что никак не мог смириться с ворохом мыслей о Джой",
    "description_36": "О том, что вскоре она покинет этот бар",
    "description_37": "…и тебя",
    "description_38": "О том сне, в котором разыгрались все твои фантазии о ней",
    "description_39": "И о том, что сегодня, возможно, последний день, когда эти фантазии смогут стать реальностью",
    "she_3": "Вообще-то, здесь тоже твоя работа!",
    "description_40": "Джой смеется, и это на мгновение это выгоняет все неприятные суетные мысли из головы, отчего ты тоже начинаешь улыбаться",
    "description_41": "Твой номер… по крайней мере, его окончание…",
    "person_answer_2_1": "…выглядит хорошо",
    "person_answer_2_2": "…просто фантастика!",
    "person_answer_2_3": "…ну, ничего так, в общем",
    "she_4": "Ты совсем не умеешь скрывать эмоции",
    "you_2": "Ты о чем?",
    "she_5": "Я же вижу, что ты грустишь",
    "description_42": "Да уж, от нее сложно что-то скрыть",
    "she_6": "Не хочешь спеть со мной?",
    "she_7": "Мне пение всегда помогает",
    "you_3": "Но… я совсем не умею. Я продюсер, а не певец",
    "she_8": "Это не так важно. Я начну, а ты просто подхватывай",
    "description_43": "Она подходит к микшеру и включает песню",
    "description_44": "Ты узнаешь ее с первых нот - это то, что Джой пела на прослушивании",
    "description_45": "Песня о любви…",
    "description_46": "Она подходит к тебе и, взяв за руку, подводит к микрофону",
    "description_47": "Ты начинаешь неуверенно, но голос Джой придаёт тебе сил",
    "description_48": "Кажется, в мире остались только вы двое - настолько музыка захватила вас",
    "description_49": "Интересно, о чём или о ком она думает? О тебе… или всё же нет?",
    "description_50": "Наконец звучат финальные аккорды, и музыка затихает",
    "she_9": "Спасибо за исполнение, напарник",
    "description_51": "Она тепло улыбается, глядя на тебя и с искренней заботой в глазах спрашивает:",
    "she_10": "Тебе стало лучше?",
    "person_answer_3_1": "Да, спасибо тебе",
    "she_11": "Ну вот, я же говорила :) Но у меня есть еще кое-что для поднятия твоего настроения",
    "person_answer_3_2": "Даже не знаю",
    "she_12": "Тогда у меня есть еще один способ",
    "person_answer_3_3": "Не уверен…",
    "she_13": "Тогда у меня есть еще один способ",
    "she_14": "Пойду переодеваться",
    "you_11": "Переодеваться?",
    "she_15": "Ты пропустил один из моих самых интересных костюмов",
    "description_52": "Джой скрывается за кулисами",
    "description_53": "Ее нет, кажется, целую вечность - хотя скорее это ты так взволнован, что время для тебя тянется бесконечно",
    "description_54": "Но наконец она выходит, хитро улыбаясь тебе, отчего ты теряешь дар речи",
    "she_16": "Ну как тебе?",
    "description_55": "Она выжидающе смотрит",
    "person_answer_4_1": "Это… очень круто",
    "she_17": "И это все, что ты можешь сказать?",
    "person_answer_4_2": "Это довольно вызывающе",
    "she_18": "Это ты еще мой танцевальный номер не видел",
    "person_answer_4_3": "У меня нет слов",
    "she_19": "И как же мне тебя разговорить?",
    "description_56": "Джой подходит ближе и исполняет несколько танцевальных движений в полной тишине",
    "you_4": "Это восхитительно",
    "you_5": "Ты… восхитительна",
    "description_57": "Она наигранно смущается, хотя на самом деле это именно она хотела смутить тебя",
    "description_58": "И у нее это прекрасно получилось",
    "description_59": "Потому что теперь тебе сложно думать о репетиции, или о номере, или о чем-либо еще",
    "description_60": "На сцене снова начинает играть музыка",
    "description_61": "На этот раз она более динамичная и танцевальная, хотя все еще джазовая",
    "description_62": "Джой начинает петь, подтанцовывая",
    "description_63": "Этим танцем она как будто бы заигрывает с тобой",
    "description_64": "Может быть, все дело в том, что она смотрит тебе прямо в глаза",
    "description_65": "Она то приобнимает тебя, то прижимается к тебе",
    "description_66": "Если она будет танцевать так при зрителях… кажется, ты снова заревновал",
    "description_67": "Но этот танец сейчас посвящается только тебе",
    "description_68": "Допев последние строчки, Джой хитро улыбается и подходит к тебе совсем близко, глядя прямо в глаза",
    "description_69": "Не сдержавшись, ты…",
    "person_answer_5_1": "Наклоняешься, чтобы чмокнуть ее в лоб",
    "person_answer_5_2": "Кладешь руки ей на талию",
    "person_answer_5_3": "Неловко кашляешь",
    "description_70": "На щеках Джой вспыхивает румянец, и абсолютно неожиданно для тебя она спрашивает:",
    "she_20": "И это всё?",
    "description_71": "Тут уже ты смущаешься, но не подаёшь вида и, притянув ее к себе, целуешь прямо в губы - сначала осторожно, но поцелуй становится всё более страстным",
    "description_72": "Джой обвивает твою шею руками, и вы сливаетесь в поцелуе, теряя ощущение времени",
    "description_73": "Ты только слышишь, как отдается по всему телу твое сердцебиение и как сбивчиво дышит Джой",
    "description_74": "Наконец сумев оторваться, вы снова с улыбкой смотрите друг другу в глаза",
    "description_75": "Пока ты пытаешься подобрать слова, Джой спрашивает:",
    "she_21": "А хочешь ли ты… Продолжения?",
    "description_76": "Что стало с этой скромницей? Её просто не узнать",
    "description_77": "Видимо, она многому научилась у Мики",
    "description_78": "Джой расстёгивает верхнюю пуговицу на твоей рубашке и останавливается",
    "she_22": "Что же ты молчишь?",
    "description_79": "Твоё сердце стучит так быстро, что голова идет кругом",
    "description_80": "Джой смотрит на тебя",
    "description_81": "Ты понимаешь, что она ждёт от тебя инициативы",
    "description_82": "Но всё, что удаётся выжать из себя, это:",
    "person_answer_6_1": "Не останавливайся",
    "description_83": "Глаза Джой буквально вспыхивают",
    "person_answer_6_2": "Прости. Я не могу",
    "description_84": "В глазах Джой мелькнуло непонимание",
    "she_23": "Ну… Я думала, мы хотим одного и того же",
    "she_24": "Но я понимаю, что смешивать работу и отношения - возможно, не самая хорошая затея",
    "she_25": "Не переживай",
    "description_85": "Даже не посмотрев на тебя, она улыбнулась, но ты узнал ее достаточно хорошо, чтобы понять, что она огорчена",
    "description_86": "В конце концов, не выдержав тишины, она сбегает за кулисы",
    "description_87": "Нужно дать ей немного времени. Тебе и самому оно не помешает",
    "description_88": "Как можно было отказаться от такой девушки из-за каких-то принципов?",
    "description_89": "Спрыгнув со сцены, ты вытаскиваешь из кармана пачку сигарет, чтобы хоть немного прочистить голову, и садишься за один из столиков",
    "description_90": "Ее не пришлось долго уговаривать",
    "description_91": "Она расстегивает твою рубашку до конца, и та падает на пол сцены",
    "description_92": "Джой гладит твой торс, спускаясь всё ниже - прямо до пряжки ремня",
    "description_93": "Понимая, что ты не можешь и дальше стоять как чурбан, ты обнимаешь её за спину и расстёгиваешь молнию костюма",
    "description_94": "Джой явно совсем не против и избавляется от него быстрее, чем ты успеваешь сделать что-либо ещё",
    "description_95": "Из одежды на ней осталась лишь узкая полоска трусиков",
    "description_96": "Ты снова целуешь ее, лаская грудь руками",
    "description_97_1": "Когда ты проскальзываешь одной рукой вниз по ее телу, Джой внезапно отстраняется",
    "she_26": "Не так быстро. Сначала я должна отблагодарить тебя",
    "you_6": "За что?",
    "she_27": "Ну как, ты же сделал меня звездой. Я и мечтать не могла о такой жизни",
    "description_97_2": "С этими словами Джой опускается на колени и расстёгивает твой ремень",
    "description_98": "Удивительно, как всё похоже на то, что ты чувствовал во сне - её движения мягкие и обволакивающие, но в то же время уверенные",
    "description_99": "Она точно знает, как именно сделать тебе приятно",
    "description_100": "Чувствуя, как напряжение доходит до предела, ты наконец говоришь:",
    "you_7": "Стой… Я бы хотел…",
    "description_101": "Джой тут же останавливается",
    "she_28": "Ах, так тебе хочется чего-то другого? Мы можем это устроить",
    "description_102": "Джой бегло оглядывает сцену и зал, и её взгляд останавливается на рояле",
    "description_103": "А затем она хитро смотрит на тебя",
    "she_29": "Могу поспорить, такого у тебя ещё не было",
    "description_104": "И она права - прямо на рояле у тебя действительно ещё не было",
    "description_105": "Джой медленно подходит к роялю, позволяя тебе насладиться её мягкими и плавными движениями, и захлопывает крышку",
    "description_106": "Сев на рояль сверху, она призывно смотрит на тебя, и ты подходишь к ней совсем близко",
    "description_107": "Её пальцы слегка касаются твоей кожи, заставляя мурашки пробежаться по спине",
    "you_12": "Ммм…",
    "description_108": "Ты стоишь, не решаясь пошевелиться",
    "description_109": "Она так сильно прижимает тебя к себе, что ты чувствуешь биение её сердца",
    "description_110": "Вы снова целуетесь",
    "she_30": "Прошу… Я хочу тебя",
    "description_111": "Ты отодвигаешь её бельё в сторону и проникаешь внутрь",
    "description_112": "Ты входишь медленно, не желая причинить ей боль, но затем ускоряешь темп, не в силах сдерживаться",
    "description_113": "Джой откликается на каждое твоё движение и стонет от наслаждения",
    "description_114": "Её бёдра приподнимаются, словно она хочет прижаться к тебе ещё сильнее",
    "description_115": "Твои руки ласкают её нежную кожу, а она зарывается пальцами в твои волосы и закрывает глаза от удовольствия",
    "description_116": "Ты чувствуешь, что уже едва сдерживаешься, и замедляешься, желая продлить этот момент",
    "description_117": "Но Джой требовательно восклицает:",
    "she_31": "Быстрее!",
    "description_118": "Ты вновь ускоряешься, слыша, как тяжело дышит Джой, ощущая жар её тела",
    "description_119": "Наконец дрожь проходит по вам обоим, и вы замираете в объятьях",
    "description_120": "Джой тяжело дышит, но улыбка не сходит с её лица",
    "she_32": "А ты не менее хорош в постели, чем в продюсировании",
    "description_121": "Джой слезает с рояля и целует тебя в губы",
    "description_122": "Казалось, всё закончилось так быстро…",
    "description_123": "Джой подбирает с пола свой костюм",
    "she_33": "Я пойду за кулисы, приведу себя в порядок и переоденусь",
    "she_34": "Не скучай ;)",
    "description_124": "Ты проходишь в зал и, достав из кармана пачку сигарет, садишься за один из столиков",
    "description_125": "Наконец Джой вернулась из-за кулис - одетая в платье",
    "she_35": "Между прочим, ты прервал мою репетицию ;) Мне нужно повторить ещё пару номеров",
    "description_126": "Джой включает микшер и начинает петь, а ты снова любуешься ею",
    "description_127": "С какой же удивительной девушкой тебя свела судьба",
    "description_128": "Конечно, вряд ли это что-то серьёзное - тем более она скоро покинет этот бар",
    "description_129": "Но приключение было просто невероятное",
    "description_130": "Репетиция заканчивается, и ты предлагаешь подвезти Джой",
    "description_131": "Уже возле её дома вы сидите в машине, не решаясь расстаться",
    "she_36": "Ты же придёшь на моё последнее выступление?",
    "you_8": "Конечно. Возможно, это последний раз, когда я увижу тебя перед долгой разлукой",
    "you_9": "А может, и вообще больше не увижу",
    "she_37": "Ты слишком пессимистичен. У нас есть номера друг друга, да и моё турне тоже закончится",
    "she_38": "Я очень привязана к этому городку, и обязательно вернусь",
    "she_39": "А вот останешься ли ты тут к этому моменту - другой вопрос",
    "she_40": "Мне кажется, ты давно перерос и этот бар, и этот город",
    "you_10": "Я даже не думал об этом. Мне сложно решаться на перемены",
    "she_41": "У тебя в последнее время было немало перемен, не так ли? Может, стоит решиться на большее?",
    "description_132": "Джой улыбается и целует тебя в щёку",
    "she_42": "Мне правда пора. Увидимся на выступлении",
    "description_133": "Закрыв дверь машины, она оставляет тебя одного",
    "description_134": "Да, ну и денёк выдался",
    "description_135": "Интересно, какие ещё приключения ждут тебя впереди?..",
    "": "Ты"
  },
  "en": {
    "description_1": "Today you have to attend Joy's rehearsal",
    "description_2": "She is preparing a new performance",
    "description_3": "It is quite complex, but the audience will be delighted!",
    "description_4": "Moreover, perhaps this will be her last performance in this bar",
    "description_5": "Thanks to her popularity, you were able to get her a tour of the best venues in the country",
    "description_6": "She deserves even more with her talent and hard work",
    "description_7": "You don't know if she will return or rush to new heights",
    "description_8": "It makes you sad, but this sadness is pleasant",
    "description_9": "After all, you helped such a talented girl break into the world of show business",
    "description_10": "She couldn't stay in this bar forever",
    "description_11": "You have known each other for so long, but before meeting her you were nervous",
    "description_12": "Also the scenes from that dream constantly popped up in your head",
    "description_13": "She's so pretty, and you're still a man",
    "description_14": "Why not…",
    "description_15": "No, hitting on your mentee is a very bad idea",
    "description_16": "Your dream certainly made a huge impression on you",
    "description_17": "If only you had the opportunity to make it a reality…",
    "description_18": "Oh",
    "description_19": "But it's probably better for dreams to remain dreams",
    "description_20": "You just need to focus on work",
    "description_21": "The karaoke bar is closed for visitors today",
    "description_22": "All day long preparations for a new performance were in full swing, but by the evening everyone had already dispersed, so the bar meets you completely empty and quiet",
    "description_23": "You only hear Joy singing coming from the stage",
    "description_24": "She beckons you like a siren with her voice, and your heart starts beating faster",
    "description_25": "\"Pull yourself together, dude\"",
    "description_26": "You walk down the hall past the wardrobe straight to the stage",
    "description_27": "Joy is so into singing that she doesn't notice you",
    "description_28": "You decide to take advantage of that, shamelessly looking at her from the darkness",
    "description_29": "How beautiful she is…",
    "description_30": "She looks like she’s glowing in the spotlight, and her dress outlines her shape in such a way that you can't put it down",
    "description_31": "She sings with her eyes closed and moves on stage as if dozens of eyes are already looking at her",
    "description_32": "But there is only you, and today you will be her only viewer",
    "description_33": "And you dissolve into her voice to enjoy it, perhaps for the last time",
    "description_34": "When she finishes, you do a few handclaps",
    "description_35_1": "Joy flinches with surprise, her eyes open, but when she sees you, a smile immediately appears on her face",
    "she_1": "You are late!",
    "person_answer_1_1": "I saw the main part of the performance",
    "person_answer_1_2": "I'm sorry, I got here as fast as I could",
    "person_answer_1_3": "I had other things to do",
    "she_1_1": "You missed the most interesting part",
    "she_2": "What took you so long?",
    "you_1": "Job",
    "description_35_2": "You lie to her, which makes you embarrassed, but you can’t admit that you delayed the time of coming to the bar because you couldn’t come to terms with a bunch of thoughts about Joy",
    "description_36": "About how soon she will leave this bar",
    "description_37": "…and you",
    "description_38": "About that dream where your imagination ran wild",
    "description_39": "And about that today might be the last day these fantasies can become reality",
    "she_3": "Actually, this is your job too!",
    "description_40": "Joy laughs, and for a moment it drives all unpleasant thoughts out of your head, which makes you smile too",
    "description_41": "Your performance… at least its ending…",
    "person_answer_2_1": "…looks nice",
    "person_answer_2_2": "…is just fantastic!",
    "person_answer_2_3": "…is okay in general",
    "she_4": "You can't hide your emotions at all",
    "you_2": "What are you talking about?",
    "she_5": "You’re sad",
    "description_42": "Well, it's hard to hide something from her",
    "she_6": "Would you like to sing with me?",
    "she_7": "Singing always helps me",
    "you_3": "But… I can't do it at all. I'm a producer, not a singer",
    "she_8": "This is not so important. I'll start and you just join in",
    "description_43": "She goes to the mixer and turns on the song",
    "description_44": "You recognize it from the first notes - this is what Joy sang at the audition",
    "description_45": "Song about love…",
    "description_46": "She comes up to you and, taking your hand, leads you to the microphone",
    "description_47": "You start cautiously, but Joy's voice gives you strength",
    "description_48": "It feels like there are only you two left in the world - the music captured you so much",
    "description_49": "You wonder what or who she is thinking about? About you…or not?",
    "description_50": "Then, the final chords sound, and the music dies down",
    "she_9": "Thanks for the performance, partner",
    "description_51": "She is smiling warmly, looks at you and asks with sincere concern in her eyes:",
    "she_10": "Are you feeling better?",
    "person_answer_3_1": "Yes, thank you",
    "she_11": "I told you :) But I have something else to cheer you up",
    "person_answer_3_2": "I don’t know",
    "she_12": "Then I have another way",
    "person_answer_3_3": "I’m not sure…",
    "she_13": "Then I have another way",
    "she_14": "I'll go change",
    "you_11": "Change?",
    "she_15": "You missed one of my most interesting outfits",
    "description_52": "Joy hides behind the curtains",
    "description_53": "She's absent, what feels like an eternity - although it's more likely that you are so excited that time is passing endlessly for you",
    "description_54": "But finally she comes out smiling slyly at you, leaving you speechless",
    "she_16": "How do you like it?",
    "description_55": "She is looking expectantly at you",
    "person_answer_4_1": "This is… very cool",
    "she_17": "Is that all you can say?",
    "person_answer_4_2": "Pretty provocatively",
    "she_18": "You haven't seen my dance number yet",
    "person_answer_4_3": "I have no words",
    "she_19": "And how can I get you talking?",
    "description_56": "Joy comes closer and does a few dance moves in total silence",
    "you_4": "This is amazing",
    "you_5": "You are… amazing",
    "description_57": "She pretends to be embarrassed, although in fact it was she who wanted to embarrass you",
    "description_58": "And that worked out well",
    "description_59": "Because now it's hard for you to think about the rehearsal, or the dance, or anything else",
    "description_60": "The music starts playing again on the stage",
    "description_61": "This time it's more dynamic and danceable, though still jazzy",
    "description_62": "Joy starts to sing while dancing",
    "description_63": "She's like flirting with you through this dance",
    "description_64": "Maybe it's because she looks straight in your eyes",
    "description_65": "She puts her arm around your waist, clings to you closely",
    "description_66": "If she dances like that in front of the audience… it seems you are jealous again",
    "description_67": "But for now this dance is dedicated only to you",
    "description_68": "After finishing the last lines, Joy smiles slyly and comes very close to you, looking straight into your eyes",
    "description_69": "Unable to resist, you…",
    "person_answer_5_1": "Lean in to kiss her on the forehead",
    "person_answer_5_2": "Put your hands on her waist",
    "person_answer_5_3": "Cough awkwardly",
    "description_70": "Joy's cheeks blush, and completely unexpectedly for you, she asks:",
    "she_20": "Is that all?",
    "description_71": "It's you who is embarrassed now, but you don’t show it and, pulling her towards you, you kiss her right on the lips - gently at first, but the kiss becomes more and more passionate",
    "description_72": "Joy wraps her arms around your neck and you kiss, losing track of time",
    "description_73": "You can only hear how your heartbeat is echoing throughout your body and how raggedly Joy is breathing",
    "description_74": "Finally managing to tear yourselves away from each other, you again look into each other's eyes with a smile",
    "description_75": "While you're trying to find words, Joy asks:",
    "she_21": "Do you want to… continue?",
    "description_76": "What happened to this shy one? She's just unrecognizable",
    "description_77": "She must have learned a lot from Miki",
    "description_78": "Joy starts to unbutton your shirt and stops",
    "she_22": "Why are you silent?",
    "description_79": "Your heart is beating so fast it makes you get dizzy",
    "description_80": "Joy looks at you",
    "description_81": "You understand that she expects some initiative from you",
    "description_82": "But all you've managed to say is:",
    "person_answer_6_1": "Don’t stop",
    "description_83": "Joy's eyes literally lit up",
    "person_answer_6_2": "Sorry. I can't",
    "description_84": "Confusion flashed in Joy's eyes",
    "she_23": "Well… I thought we wanted the same thing",
    "she_24": "But I understand that mixing work and relationships is probably not the best idea",
    "she_25": "Don’t worry",
    "description_85": "She smiled without even looking at you, but you got to know her well enough to know she was upset",
    "description_86": "Unable to bear the silence, she runs backstage",
    "description_87": "She just needs some time. You could use this time too",
    "description_88": "How could you refuse such a girl because of some principles?!",
    "description_89": "Leaping off the stage, you pull a pack of cigarettes out of your pocket to clear your head a little and sit down at one of the tables",
    "description_90": "It didn't take long to persuade her",
    "description_91": "She unbuttons your shirt completely, and it falls to the floor of the stage",
    "description_92": "Joy strokes your chest, going down and down - right to the belt buckle",
    "description_93": "Realizing that you need to do something, you hug her and unzip her outfit",
    "description_94": "Joy clearly doesn't mind at all and gets rid of it faster than you can do anything else",
    "description_95": "Only a narrow strip of panties remains on her",
    "description_96": "You kiss her again, caressing her breasts",
    "description_97_1": "When you slide one hand down her body, Joy suddenly pulls away",
    "she_26": "Not so fast. First I have to repay you",
    "you_6": "For what?",
    "she_27": "Well, you made me a star. I couldn't even dream of such a life",
    "description_97_2": "With these words, Joy kneels down and unbuckles your belt",
    "description_98": "It's amazing how everything is similar to what you felt in a dream - her movements are soft and enveloping, but confident at the same time",
    "description_99": "She knows exactly how to please you",
    "description_100": "Feeling the tension reaching its limit, you say:",
    "you_7": "Wait… I would like to…",
    "description_101": "Joy stops immediately",
    "she_28": "Oh, so you want something else? We can arrange it",
    "description_102": "Joy glances around the stage and the audience hall, and her eyes stop on the grand piano",
    "description_103": "And then she slyly looks at you",
    "she_29": "I bet you haven't had anything like this before",
    "description_104": "And she's right - you really haven't had it on the grand piano yet",
    "description_105": "Joy slowly walks over to it, letting you enjoy her soft and flowing movements, and slams the lid",
    "description_106": "Sitting on the grand piano, she looks at you invitingly, and you come very close to her",
    "description_107": "Her fingers lightly touch your skin, giving you goosebumps down your back",
    "you_12": "Mmm…",
    "description_108": "You stand, not daring to move",
    "description_109": "She hugs you so tightly that you can feel her heartbeat",
    "description_110": "You kiss again",
    "she_30": "Please… I want you",
    "description_111": "You push her panties to the side and get inside",
    "description_112": "You enter slowly, not wanting to hurt her, but then you pick up the pace, unable to contain yourself",
    "description_113": "Joy responds to your every move and moans in pleasure",
    "description_114": "Her hips rise as if she wants to snuggle up to you even tighter",
    "description_115": "Your hands caress her delicate skin, and she burrows her fingers into your hair and closes her eyes in pleasure",
    "description_116": "You feel like you're barely holding back, and you slow down to prolong this moment",
    "description_117": "But Joy exclaims demandingly:",
    "she_31": "Faster!",
    "description_118": "You pick up the pace again, hearing Joy's heavy breathing, feeling the heat of her body",
    "description_119": "Finally, a shiver passes through both of you, and you stay in each other's arms",
    "description_120": "Joy is breathing heavily, but the smile isn’t leaving her face",
    "she_32": "You're just as good in bed as you are at producing",
    "description_121": "Joy gets off the grand piano and kisses you on the lips",
    "description_122": "It all seemed to end so quickly…",
    "description_123": "Joy picks up her outfit from the floor",
    "she_33": "I'll go backstage, freshen up and change",
    "she_34": "Don’t miss me ;)",
    "description_124": "You go into the audience hall and sit down at one of the tables, taking out a pack of cigarettes from your pocket",
    "description_125": "Finally Joy returned from backstage - wearing a dress",
    "she_35": "By the way, you interrupted my rehearsal ;) I need to repeat a couple more numbers",
    "description_126": "Joy turns on the mixer and starts to sing, and you admire her again",
    "description_127": "What an amazing girl fate brought you together with",
    "description_128": "Of course, this is hardly something serious - especially since she will soon leave this bar",
    "description_129": "But the adventure was just incredible",
    "description_130": "Rehearsal ends and you offer to give Joy a lift",
    "description_131": "When you’re already near her place you both stay in the car, not daring to leave",
    "she_36": "Are you coming to my last performance?",
    "you_8": "Sure. It may be my last chance to see you before you leave the town",
    "you_9": "Maybe we won’t even see each other again",
    "she_37": "You’re too pessimistic. We’ve got each other’s phone numbers, and my tour won’t take forever",
    "she_38": "I’m really attached to this town, so I’ll definitely return",
    "she_39": "But another question is whether you stay here by this moment",
    "she_40": "I think you’ve long outgrown this bar and this town",
    "you_10": "I didn’t even think about it. Changes are hard",
    "she_41": "But you’ve had some lately, haven’t you? Why not try something bigger?",
    "description_132": "Joy smiles and kisses you on the cheek",
    "she_42": "I really have to go. See you at the show",
    "description_133": "She closes the car door and leaves you alone",
    "description_134": "Well, that’s been a day",
    "description_135": "You wonder what other adventures lie ahead for you?..",
    "": "You"
  },
  "pt": {
    "description_1": "Hoje tem que assistir ao ensaio da Joy",
    "description_2": "Ela está preparando um novo desempenho",
    "description_3": "É bastante complexo, mas o público ficará encantado!",
    "description_4": "Além disso, talvez esta seja sua última apresentação neste bar",
    "description_5": "Graças à popularidade de Joy, você conseguiu fazer com que Joy fizesse um tour pelos melhores locais do país",
    "description_6": "Ela merece ainda mais com seu talento e trabalho duro",
    "description_7": "Você não sabe se ela vai voltar ou correr para novas alturas",
    "description_8": "Isso te deixa triste, mas essa tristeza é agradável",
    "description_9": "Afinal, você ajudou uma garota tão talentosa a entrar no mundo do espetáculo",
    "description_10": "Ela não poderia ficar neste bar para sempre",
    "description_11": "Vocês se conhecem há tanto tempo, mas antes de conhecê-la você estava nervoso",
    "description_12": "Também as cenas daquele sonho constantemente apareciam em sua cabeça",
    "description_13": "Ela é tão bonita, e você ainda é um homem",
    "description_14": "Por que não…",
    "description_15": "Não, dar em cima do seu mentorado é uma péssima ideia",
    "description_16": "Seu sonho certamente causou uma grande impressão em você",
    "description_17": "Se ao menos você tivesse a oportunidade de torná-lo realidade…",
    "description_18": "Oh",
    "description_19": "Mas provavelmente é melhor que os sonhos continuem sendo sonhos",
    "description_20": "Você só precisa se concentrar no trabalho",
    "description_21": "O bar de karaokê está fechado para visitantes hoje",
    "description_22": "Durante todo o dia os preparativos para uma nova apresentação estavam em pleno andamento, mas à noite todos já haviam se dispersado, então o bar encontra você completamente vazio e tranquilo",
    "description_23": "Você só ouve Joy cantando vindo do palco",
    "description_24": "Ela te atrai como uma sereia com sua voz, e seu coração começa a bater mais rápido",
    "description_25": "\"Se recomponha, cara\"",
    "description_26": "Você anda pelo corredor passando pelo guarda-roupa direto para o palco",
    "description_27": "Joy está tão ocupada cantando que ela não nota você",
    "description_28": "Você decide tirar vantagem disso, olhando descaradamente para ela da escuridão",
    "description_29": "Que linda ela é…",
    "description_30": "Ela parece estar brilhando sob os holofotes, e seu vestido delineia sua forma de tal forma que você não pode desviar o olhar",
    "description_31": "Ela canta de olhos fechados e se move no palco como se dezenas de olhos já estivessem olhando para ela",
    "description_32": "Mas existe apenas você, e hoje você será o único espectador dela",
    "description_33": "E você se dissolve na voz dela para apreciá-la, talvez pela última vez",
    "description_34": "Quando ela termina, você bate palmas",
    "description_35_1": "Joy estremece de surpresa, seus olhos se abrem, mas quando ela te vê, um sorriso aparece imediatamente em seu rosto",
    "she_1": "Você está atrasado!",
    "person_answer_1_1": "Eu vi a parte principal do desempenho",
    "person_answer_1_2": "Desculpe, cheguei aqui o mais rápido que pude",
    "person_answer_1_3": "Eu tinha outras coisas para fazer",
    "she_1_1": "Você perdeu a parte mais interessante",
    "she_2": "Por que demorou tanto?",
    "you_1": "Trabalho",
    "description_35_2": "Você mente para ela, o que deixa você envergonhado, mas não pode admitir que atrasou a hora de vir ao bar porque não conseguiu se conformar com um monte de pensamentos sobre Joy",
    "description_36": "Sobre quando ela vai deixar este bar",
    "description_37": "…e você",
    "description_38": "Sobre aquele sonho onde sua imaginação corria solta",
    "description_39": "E sobre isso hoje pode ser o último dia em que essas fantasias podem se tornar realidade",
    "she_3": "Na verdade, este é o seu trabalho também!",
    "description_40": "Joy ri e, por um momento, afasta todos os pensamentos desagradáveis da sua cabeça, o que faz você sorrir também",
    "description_41": "Seu desempenho… pelo menos seu fim…",
    "person_answer_2_1": "…parece bom",
    "person_answer_2_2": "…é simplesmente fantástico!",
    "person_answer_2_3": "…é bom em geral",
    "she_4": "Você não pode esconder suas emoções",
    "you_2": "O que você está falando?",
    "she_5": "Você está triste",
    "description_42": "Bem, é difícil esconder algo dela",
    "she_6": "Você gostaria de cantar comigo?",
    "she_7": "Cantar sempre me ajuda",
    "you_3": "Mas… eu não posso fazer isso. Eu sou um produtor, não um cantor",
    "she_8": "Isso não é tão importante. Eu vou começar e você apenas se junta",
    "description_43": "Ela vai para a mesa de mistura e liga a música",
    "description_44": "Você reconhece desde as primeiras notas - foi isso que Joy cantou na audição",
    "description_45": "Canção sobre o amor…",
    "description_46": "Ela vem até você e, pegando sua mão, te leva até o microfone",
    "description_47": "Você começa com cautela, mas a voz de Joy te dá força",
    "description_48": "Parece que só restam vocês dois no mundo - a música capturou muito vocês",
    "description_49": "Você quer saber o que ou quem ela está pensando? Sobre você… ou não?",
    "description_50": "Então, os acordes finais soam, e a música diminui",
    "she_9": "Obrigado pelo desempenho, parceiro",
    "description_51": "Ela está sorrindo calorosamente, olha para você e pergunta com sincera preocupação em seus olhos:",
    "she_10": "Você está se sentindo melhor?",
    "person_answer_3_1": "Sim, obrigado",
    "she_11": "Eu avisei :) Mas tenho outra coisa para te animar",
    "person_answer_3_2": "Não sei",
    "she_12": "Então eu tenho outra maneira",
    "person_answer_3_3": "Não tenho certeza…",
    "she_13": "Então eu tenho outra maneira",
    "she_14": "Vou trocar",
    "you_11": "Trocar?",
    "she_15": "Você perdeu uma das minhas roupas mais interessantes",
    "description_52": "Joy se esconde atrás das cortinas",
    "description_53": "Ela está ausente, o que parece uma eternidade - embora seja mais provável que você esteja tão animado que o tempo esteja passando infinitamente para você",
    "description_54": "Mas finalmente ela sai sorrindo maliciosamente para você, deixando você sem palavras",
    "she_16": "Como é que você gosta?",
    "description_55": "Ela está olhando com expectativa para você",
    "person_answer_4_1": "Isso é… muito legal",
    "she_17": "Isso é tudo que você pode dizer?",
    "person_answer_4_2": "Bastante provocante",
    "she_18": "Você ainda não viu meu número de dança",
    "person_answer_4_3": "Não tenho palavras",
    "she_19": "E como posso fazer você falar?",
    "description_56": "Joy se aproxima e faz alguns movimentos de dança em silêncio total",
    "you_4": "Isso é incrível",
    "you_5": "Você é… incrível",
    "description_57": "Ela finge estar envergonhada, embora na verdade fosse ela quem queria envergonho você",
    "description_58": "E isso deu certo",
    "description_59": "Porque agora é difícil você pensar no ensaio, ou na dança, ou qualquer outra coisa",
    "description_60": "A música começa a tocar novamente no palco",
    "description_61": "Desta vez é mais dinâmico e dançante, embora ainda jazzístico",
    "description_62": "Joy começa a cantar enquanto dança",
    "description_63": "Ela é como flertar com você através desta dança",
    "description_64": "Talvez seja porque ela olha diretamente em seus olhos",
    "description_65": "Ela coloca o braço em volta da sua cintura, se agarra a você de perto",
    "description_66": "Se ela dança assim na frente do público… parece que você está com ciúmes de novo",
    "description_67": "Mas por enquanto esta dança é dedicada apenas a você",
    "description_68": "Depois de terminar as últimas linhas, Joy sorri maliciosamente e chega bem perto de você, olhando direto nos seus olhos",
    "description_69": "Incapaz de resistir, você…",
    "person_answer_5_1": "Se inclina para beijá-la na testa",
    "person_answer_5_2": "Coloca as mãos na cintura dela",
    "person_answer_5_3": "Tosse sem jeito",
    "description_70": "As bochechas de Joy coram e, inesperadamente para você, ela pergunta:",
    "she_20": "Isso é tudo?",
    "description_71": "É você que está envergonhado agora, mas você não mostra isso e, puxando-a para você, você a beija bem nos lábios - suavemente no início, mas o beijo se torna cada vez mais apaixonado",
    "description_72": "Joy envolve seus braços em volta do seu pescoço e você beija, perdendo a noção do tempo",
    "description_73": "Você só pode ouvir como seu batimento cardíaco está ecoando por todo o seu corpo e como Joy está respirando irregularmente",
    "description_74": "Finalmente conseguindo se separar um do outro, vocês novamente olham nos olhos um do outro com um sorriso",
    "description_75": "Enquanto você tenta encontrar palavras, Joy pergunta:",
    "she_21": "Você quer… mais?",
    "description_76": "O que aconteceu com essa garota tímida? Ela é simplesmente irreconhecível",
    "description_77": "Ela deve ter aprendido muito com Miki",
    "description_78": "Joy começa a desabotoar sua camisa e para",
    "she_22": "Por que você está quieto?",
    "description_79": "Seu coração está batendo tão rápido que faz você ficar tonto",
    "description_80": "Joy olha para você",
    "description_81": "Você entende que ela espera alguma iniciativa de você",
    "description_82": "Mas tudo que você conseguiu dizer é:",
    "person_answer_6_1": "Não pare",
    "description_83": "Os olhos de Joy literalmente se iluminaram",
    "person_answer_6_2": "Desculpe. Não posso",
    "description_84": "Confusão brilhou nos olhos de Joy",
    "she_23": "Bem… Eu pensei que queríamos a mesma coisa",
    "she_24": "Mas eu entendo que misturar trabalho e relacionamentos provavelmente não é a melhor ideia",
    "she_25": "Não se preocupe",
    "description_85": "Ela sorriu sem sequer olhar para você, mas você a conhece bem o suficiente para saber que ela estava chateada",
    "description_86": "Incapaz de suportar o silêncio, ela corre nos bastidores",
    "description_87": "Ela só precisa de um tempo. Você poderia usar este tempo também",
    "description_88": "Como você pode recusar uma garota assim por causa de alguns princípios?!",
    "description_89": "Saltando do palco, você tira um maço de cigarros do bolso para clarear um pouco a cabeça e se senta em uma das mesas",
    "description_90": "Não demorou muito para convencê-la",
    "description_91": "Ela desabotoa sua camisa completamente, e ela cai no chão do palco",
    "description_92": "A alegria acaricia seu peito, descendo e descendo - até a fivela do cinto",
    "description_93": "Percebendo que você precisa fazer alguma coisa, você a abraça e abre o zíper da roupa dela",
    "description_94": "Joy claramente não se importa e se livra disso mais rápido do que você pode fazer qualquer outra coisa",
    "description_95": "Apenas uma faixa estreita de calcinha permanece nela",
    "description_96": "Você a beija novamente, acariciando seus seios",
    "description_97_1": "Quando você desliza uma mão pelo corpo dela, Joy de repente se afasta",
    "she_26": "Não tão rápido. Primeiro eu tenho que retribuir",
    "you_6": "O quê?",
    "she_27": "Bem, você me fez uma estrela. Eu não poderia nem sonhar com uma vida assim",
    "description_97_2": "Com estas palavras, Joy se ajoelha e desafivelar o cinto",
    "description_98": "É incrível como tudo é semelhante ao que você sentiu em um sonho - seus movimentos são suaves e envolventes, mas confiantes ao mesmo tempo",
    "description_99": "Ela sabe exatamente como te agradar",
    "description_100": "Sentindo a tensão chegando ao limite, você diz:",
    "you_7": "Espere… Gostaria de…",
    "description_101": "Joy para imediatamente",
    "she_28": "Ah, então você quer outra coisa? Podemos organizá-lo",
    "description_102": "Joy olha ao redor do palco e da sala de audiência, e seus olhos param no piano de cauda",
    "description_103": "E então ela maliciosamente olha para você",
    "she_29": "Aposto que você nunca teve nada assim antes",
    "description_104": "E ela está certa - você realmente não fez isso no piano de cauda ainda",
    "description_105": "Joy caminha lentamente até isto, permitindo que você aprecie seus movimentos suaves e fluidos, e bate a tampa",
    "description_106": "Sentada no piano de cauda, ela olha para você convidativamente, e você chega bem perto dela",
    "description_107": "Seus dedos tocam levemente sua pele, dando-lhe arrepios nas costas",
    "you_12": "Hum…",
    "description_108": "Você fica, não se atrevendo a se mover",
    "description_109": "Ela te abraça com tanta força que você pode sentir seu batimento cardíaco",
    "description_110": "Você a beija de novo",
    "she_30": "Por favor… Quero você",
    "description_111": "Você empurra a calcinha para o lado e entra",
    "description_112": "Você entra devagar, não querendo machucá-la, mas depois acelera o passo, incapaz de se conter",
    "description_113": "Joy responde a cada movimento seu e geme de prazer",
    "description_114": "Seus quadris sobem como se ela quisesse se aconchegar em você ainda mais apertado",
    "description_115": "Suas mãos acariciam sua pele delicada, e ela enfia os dedos em seu cabelo e fecha os olhos de prazer",
    "description_116": "Você sente que mal está se segurando e diminui a velocidade para prolongar esse momento",
    "description_117": "Mas Joy exclama exigente:",
    "she_31": "Mais rápido!",
    "description_118": "Você pega o ritmo novamente, ouvindo a respiração pesada de Joy, sentindo o calor de seu corpo",
    "description_119": "Finalmente, um arrepio passa por vocês dois, e vocês ficam nos braços um do outro",
    "description_120": "Joy está respirando pesadamente, mas o sorriso não está deixando seu rosto",
    "she_32": "Você é tão bom na cama quanto na produção",
    "description_121": "Joy desce do piano de cauda e te beija nos lábios",
    "description_122": "Parece que tudo acabou tão rápido…",
    "description_123": "Joy pega sua roupa do chão",
    "she_33": "Eu vou nos bastidores, me refrescar e me trocar",
    "she_34": "Não sinta minha falta ;)",
    "description_124": "Você entra no salão do bar e se senta em uma das mesas, tirando um maço de cigarros do bolso",
    "description_125": "Finalmente Joy voltou dos bastidores - usando um vestido",
    "she_35": "A propósito, você interrompeu meu ensaio ;) Preciso repetir mais algumas músicas",
    "description_126": "Joy liga a mesa de mistura e começa a cantar, e você a admira novamente",
    "description_127": "Que garota incrível o destino te trouxe junto",
    "description_128": "Claro, isso dificilmente é algo sério - especialmente porque ela logo deixará este bar",
    "description_129": "Mas a aventura foi simplesmente incrível",
    "description_130": "O ensaio termina e você se oferece para dar uma carona a Joy",
    "description_131": "Quando você já está perto da casa dela, vocês dois ficam no carro, sem se atrever a sair",
    "she_36": "Você vem à minha último desempenho?",
    "you_8": "Claro. Pode ser minha última chance de vê-lo, antes de você sair da cidade",
    "you_9": "Talvez nem nos vejamos novamente",
    "she_37": "Você é muito pessimista. Temos os números de telefone um do outro, e minha turnê não vai demorar para sempre",
    "she_38": "Estou muito ligado a esta cidade, então definitivamente voltarei",
    "she_39": "Mas outra questão é se você fica aqui neste momento",
    "she_40": "Eu acho que você já superou este bar e esta cidade",
    "you_10": "Nem pensei nisso. Mudanças são difíceis",
    "she_41": "Mas você teve alguns ultimamente, não é? Por que não tentar algo maior?",
    "description_132": "Joy sorri e te beija na bochecha",
    "she_42": "Eu realmente tenho que ir. Te vejo no show",
    "description_133": "Ela fecha a porta do carro e te deixa sozinho",
    "description_134": "Bem, isso foi um dia",
    "description_135": "Você se pergunta, que outras aventuras estão à sua frente?..",
    "": "Você"
  },
  "es": {
    "description_1": "Hoy tienes que asistir al ensayo de Joy",
    "description_2": "Ella está preparando un nuevo espectáculo",
    "description_3": "Es bastante complejo, ¡pero el público estará encantado!",
    "description_4": "Además, quizás esta sea su última actuación en este bar",
    "description_5": "Gracias a su popularidad, pudiste hacerle un recorrido por los mejores lugares del país",
    "description_6": "Ella se merece aún más con su talento y trabajo duro",
    "description_7": "No sabes si ella regresará o se lanzará a nuevas alturas",
    "description_8": "Te pone triste, pero esta tristeza es agradable",
    "description_9": "Después de todo, ayudaste a una chica tan talentosa a entrar en el mundo del espectáculo",
    "description_10": "Ella no podía quedarse en este bar para siempre",
    "description_11": "Os conocéis desde hace tanto tiempo, pero estabais nerviosos",
    "description_12": "También las escenas de ese sueño aparecían constantemente en tu cabeza",
    "description_13": "Ella es tan bonita y tú sigues siendo un hombre",
    "description_14": "Por que no…",
    "description_15": "No, coquetear con tu aprendiza es una muy mala idea",
    "description_16": "Tu sueño ciertamente te causó una gran impresión",
    "description_17": "Si tan solo tuvieras la oportunidad de hacerlo realidad…",
    "description_18": "Oh",
    "description_19": "Pero probablemente sea mejor que los sueños sigan siendo sueños",
    "description_20": "Solo tienes que concentrarte en el trabajo",
    "description_21": "El bar de karaoke está cerrado para los visitantes hoy",
    "description_22": "Durante todo el día, los preparativos para una nueva actuación estuvieron en pleno apogeo, pero por la noche todos ya se habían dispersado, por lo que el bar se encuentra completamente vacío y silencioso",
    "description_23": "Solo escuchas a Joy cantando desde el escenario",
    "description_24": "Ella te llama como una sirena con su voz, y tu corazón comienza a latir más rápido",
    "description_25": "\"Contrólate, amigo\"",
    "description_26": "Caminas por el pasillo pasando el guardarropa directo al escenario",
    "description_27": "Joy es tan apasionada con el canto que no se fija en ti",
    "description_28": "Decides aprovecharte de eso, mirándola descaradamente desde la oscuridad",
    "description_29": "Que hermosa es…",
    "description_30": "Parece como si estuviera brillando bajo los reflectores, y su vestido perfila su forma de tal manera que no puedes dejarlo",
    "description_31": "Canta con los ojos cerrados y se mueve en el escenario como si decenas de ojos ya la estuvieran mirando",
    "description_32": "Pero solo estás tú, y hoy serás su único espectador",
    "description_33": "Y te disuelves en su voz para disfrutarla, quizás por última vez",
    "description_34": "Cuando ella termina, haces unas pocos palmadas",
    "description_35_1": "Joy se estremece con sorpresa, sus ojos se abren, pero cuando te ve, una sonrisa aparece inmediatamente en su rostro",
    "she_1": "¡Llegas tarde!",
    "person_answer_1_1": "Vi la parte principal de la actuación",
    "person_answer_1_2": "Lo siento, llegué aquí lo más rápido que pude",
    "person_answer_1_3": "Yo tenia otras cosas que hacer",
    "she_1_1": "Te perdiste la parte más interesante",
    "she_2": "¿Qué te tomó tanto tiempo?",
    "you_1": "Trabajo",
    "description_35_2": "Le mientes, lo que te avergüenza, pero no puedes admitir que retrasaste el momento de venir al bar porque no podías aceptar un montón de pensamientos sobre Joy",
    "description_36": "Sobre lo pronto que dejará este bar",
    "description_37": "…y tú",
    "description_38": "Sobre ese sueño donde tu imaginación se desbocó",
    "description_39": "Y sobre eso, hoy podría ser el último día en que estas fantasías pueden convertirse en realidad",
    "she_3": "En realidad, ¡este también es tu trabajo!",
    "description_40": "Joy se ríe, y por un momento expulsa todos los pensamientos desagradables de tu cabeza, lo que te hace sonreír también",
    "description_41": "Tu actuación… al menos su final…",
    "person_answer_2_1": "…se ve bien",
    "person_answer_2_2": "…es simplemente fantástico",
    "person_answer_2_3": "…está bien en general",
    "she_4": "No puedes ocultar tus emociones en absoluto",
    "you_2": "¿De qué estás hablando?",
    "she_5": "Estas triste",
    "description_42": "Bueno, es difícil ocultarle algo",
    "she_6": "¿Te gustaría cantar conmigo?",
    "she_7": "Cantar siempre me ayuda",
    "you_3": "Pero… no puedo hacerlo en absoluto. Soy productor, no cantante",
    "she_8": "Esto no es tan importante. Yo empiezo y tú te unes",
    "description_43": "Ella va al mezclador de música y enciende la canción",
    "description_44": "Lo reconoces desde las primeras notas - esto es lo que cantó Joy en la audición",
    "description_45": "Canción sobre el amor…",
    "description_46": "Ella se acerca a ti y, tomando tu mano, te lleva al micrófono",
    "description_47": "Empiezas con cautela, pero la voz de Joy te da fuerzas",
    "description_48": "Se siente como si solo quedaran ustedes dos en el mundo: la música los capturó tanto",
    "description_49": "¿Te preguntas en qué o en quién está pensando? ¿Sobre ti… o no?",
    "description_50": "Luego, suenan los acordes finales y la música se apaga",
    "she_9": "Gracias por la actuación, compañero",
    "description_51": "Ella sonríe cálidamente, te mira y pregunta con sincera preocupación en sus ojos:",
    "she_10": "¿Te sientes mejor?",
    "person_answer_3_1": "Si, gracias",
    "she_11": "Te lo dije :) Pero tengo algo más para animarte",
    "person_answer_3_2": "No sé",
    "she_12": "Entonces tengo otra manera",
    "person_answer_3_3": "No estoy seguro…",
    "she_13": "Entonces tengo otra manera",
    "she_14": "Iré a cambiarme",
    "you_11": "¿Cambiar?",
    "she_15": "Te perdiste uno de mis atuendos más interesantes",
    "description_52": "Joy se esconde detrás de las cortinas",
    "description_53": "Ella está ausente, lo que se siente como una eternidad, aunque es más probable que estés tan emocionado que el tiempo pasa interminablemente para ti",
    "description_54": "Pero finalmente sale sonriéndote con picardía, dejándote sin palabras",
    "she_16": "¿Te gusta eso?",
    "description_55": "Ella te mira expectante",
    "person_answer_4_1": "Esto es muy… genial",
    "she_17": "¿Eso es todo lo que puedes decir?",
    "person_answer_4_2": "Bastante provocativo",
    "she_18": "Aún no has visto mi número de baile",
    "person_answer_4_3": "No tengo palabras",
    "she_19": "¿Y cómo puedo hacerte hablar?",
    "description_56": "Joy se acerca y hace algunos movimientos de baile en total silencio",
    "you_4": "Esto es increíble",
    "you_5": "Tu eres… increíble",
    "description_57": "Ella finge estar avergonzada, aunque en realidad era ella quien quería avergonzarte",
    "description_58": "Y eso funcionó bien",
    "description_59": "Porque ahora te cuesta pensar en el ensayo, o el baile, o cualquier otra cosa",
    "description_60": "La música comienza a sonar de nuevo en el escenario",
    "description_61": "Esta vez es más dinámico y bailable, aunque sigue siendo jazzístico",
    "description_62": "Joy comienza a cantar mientras baila",
    "description_63": "Ella es como coquetear contigo a través de este baile",
    "description_64": "Tal vez sea porque te mira directamente a los ojos",
    "description_65": "Ella pone su brazo alrededor de tu cintura, se aferra a ti de cerca",
    "description_66": "Si ella baila así frente a la audiencia… parece que estás celoso otra vez",
    "description_67": "Pero por ahora este baile es solo para ti",
    "description_68": "Después de terminar las últimas líneas, Joy sonríe con picardía y se acerca mucho a ti, mirándote directamente a los ojos",
    "description_69": "Incapaz de resistir…",
    "person_answer_5_1": "Te inclinas para besarla en la frente",
    "person_answer_5_2": "Pones tus manos en su cintura",
    "person_answer_5_3": "Toses torpemente",
    "description_70": "Las mejillas de Joy se sonrojan y, de forma completamente inesperada para ti, pregunta:",
    "she_20": "¿Eso es todo?",
    "description_71": "Eres tú quien está avergonzado ahora, pero no lo demuestras y, atrayéndola hacia ti, la besas justo en los labios, suavemente al principio, pero el beso se vuelve cada vez más apasionado",
    "description_72": "Joy envuelve sus brazos alrededor de tu cuello y te besas, perdiendo la noción del tiempo",
    "description_73": "Solo puedes escuchar el eco de los latidos de tu corazón por todo tu cuerpo y la respiración entrecortada de Joy",
    "description_74": "Finalmente logrando separarse el uno del otro, nuevamente se miran a los ojos con una sonrisa",
    "description_75": "Mientras intentas encontrar las palabras, Joy pregunta:",
    "she_21": "¿Quieres… continuar?",
    "description_76": "¿Qué le pasó a este tímido? Ella es simplemente irreconocible",
    "description_77": "Ella debe haber aprendido mucho de Miki",
    "description_78": "Joy empieza a desabrocharte la camisa y se detiene",
    "she_22": "¿Porque estás callado?",
    "description_79": "Tu corazón late tan rápido que te marea",
    "description_80": "Joy te mira",
    "description_81": "Entiendes que ella espera de ti alguna iniciativa",
    "description_82": "Pero todo lo que has logrado decir es:",
    "person_answer_6_1": "No te detengas",
    "description_83": "Los ojos de Joy literalmente se iluminaron",
    "person_answer_6_2": "Lo siento. No puedo",
    "description_84": "La confusión brilló en los ojos de Joy",
    "she_23": "Bueno… pensé que queríamos lo mismo",
    "she_24": "Pero entiendo que mezclar trabajo y relaciones probablemente no sea la mejor idea",
    "she_25": "No te preocupes",
    "description_85": "Ella sonrió sin siquiera mirarte, pero llegaste a conocerla lo suficiente como para saber que estaba molesta",
    "description_86": "Incapaz de soportar el silencio, corre detrás del escenario",
    "description_87": "Ella solo necesita algo de tiempo. Podrías usar este tiempo también",
    "description_88": "¡¿Cómo pudiste rechazar a una chica así por algunos principios?!",
    "description_89": "Saltando del escenario, sacas un paquete de cigarrillos de tu bolsillo para despejarte un poco y te sientas en una de las mesas",
    "description_90": "No tomó mucho tiempo persuadirla",
    "description_91": "Te desabrocha la camisa por completo y la cae al suelo del escenario",
    "description_92": "Joy acaricia tu pecho, bajando y bajando, hasta la hebilla del cinturón",
    "description_93": "Al darte cuenta de que tienes que hacer algo, la abrazas y le desabrochas la ropa",
    "description_94": "A Joy claramente no le importa en absoluto y se deshace de él más rápido de lo que puedes hacer cualquier otra cosa",
    "description_95": "Solo le queda una estrecha tira de bragas",
    "description_96": "La vuelves a besar, acariciando sus pechos",
    "description_97_1": "Cuando deslizas una mano por su cuerpo, Joy de repente se aleja",
    "she_26": "No tan rapido. Primero tengo que devolver el favor",
    "you_6": "¿Para qué?",
    "she_27": "Bueno, me convertiste en una estrella. Ni siquiera podría soñar con una vida así",
    "description_97_2": "Con estas palabras, Joy se arrodilla y te desabrocha el cinturón",
    "description_98": "Es increíble cómo todo es similar a lo que sentiste en un sueño: sus movimientos son suaves y envolventes, pero confidentes al mismo tiempo",
    "description_99": "Ella sabe exactamente cómo complacerte",
    "description_100": "Sintiendo que la tensión llega a su límite, dices:",
    "you_7": "Espera… Me gustaría…",
    "description_101": "Joy se detiene de inmediato",
    "she_28": "Oh, ¿entonces quieres algo más? Podemos arreglarlo",
    "description_102": "Joy mira alrededor del escenario y el auditorio, y sus ojos se detienen en el piano de cola",
    "description_103": "Y luego te mira astutamente",
    "she_29": "Apuesto a que no has tenido nada como esto antes",
    "description_104": "Y tiene razón: realmente aún no lo has tenido en el piano de cola",
    "description_105": "Joy camina lentamente hacia él, dejándote disfrutar de sus movimientos suaves y fluidos, y cierra la tapa",
    "description_106": "Sentado en el piano de cola, te mira incitante y te acercas mucho a ella",
    "description_107": "Sus dedos tocan suavemente tu piel, poniéndote la piel de gallina en la espalda",
    "you_12": "Mmm…",
    "description_108": "Te paras, sin atreverte a moverte",
    "description_109": "Te abraza tan fuerte que puedes sentir los latidos de su corazón",
    "description_110": "Te besas de nuevo",
    "she_30": "Por favor… te deseo",
    "description_111": "Empujas sus bragas hacia un lado y entras",
    "description_112": "Entras despacio, sin querer hacerle daño, pero luego aceleras, incapaz de contenerte",
    "description_113": "Joy responde a cada uno de tus movimientos y gime de placer",
    "description_114": "Sus caderas se elevan como si quisiera acurrucarse aún más contigo",
    "description_115": "Tus manos acarician su delicada piel, y ella entierra sus dedos en tu cabello y cierra los ojos con placer",
    "description_116": "Sientes que apenas te estás conteniendo y disminuyes la velocidad para prolongar este momento",
    "description_117": "Pero Joy exclama exigente:",
    "she_31": "¡Más rápido!",
    "description_118": "Retomas el ritmo de nuevo, escuchas la respiración pesada de Joy, sientes el calor de su cuerpo",
    "description_119": "Finalmente, un escalofrío los atraviesa a ambos y se quedan en los brazos del otro",
    "description_120": "Joy respira con dificultad, pero la sonrisa no desaparece de su rostro",
    "she_32": "Eres tan bueno en la cama como produciendo",
    "description_121": "Joy se baja del piano de cola y te besa en los labios",
    "description_122": "Todo parecía terminar tan rápido…",
    "description_123": "Joy recoge su ropa del suelo",
    "she_33": "Iré detrás del escenario, me refrescaré y me cambiaré",
    "she_34": "No me extrañes ;)",
    "description_124": "Entras en el auditorio y te sientas en una de las mesas, sacas un paquete de cigarrillos de tu bolsillo",
    "description_125": "Finalmente, Joy regresó del backstage, con un vestido",
    "she_35": "Por cierto, interrumpiste mi ensayo ;) Necesito repetir un par de números más",
    "description_126": "Joy enciende el mezclador de música y comienza a cantar, y la admiras de nuevo",
    "description_127": "Con qué increíble chica te reunió el destino",
    "description_128": "Por supuesto, esto no es algo serio, especialmente porque pronto dejará este bar",
    "description_129": "Pero la aventura fue simplemente increíble",
    "description_130": "El ensayo termina y te ofreces a llevar a Joy",
    "description_131": "Cuando ya estás cerca de su casa, ambos se quedan en el auto, sin atreverse a irse",
    "she_36": "¿Vienes a mi última actuación?",
    "you_8": "Por supuesto. Puede ser mi última oportunidad de verte antes de que te vayas de la ciudad",
    "you_9": "Tal vez ni siquiera nos volvamos a ver",
    "she_37": "Eres demasiado pesimista. Tenemos los números de teléfono de cada uno, y mi recorrido no durará una eternidad",
    "she_38": "Realmente estoy apegada a esta ciudad, así que definitivamente regresaré",
    "she_39": "Pero otra pregunta es si te quedas aquí en este momento",
    "she_40": "Creo que has superado este bar y esta ciudad durante mucho tiempo",
    "you_10": "Ni siquiera lo pensé. Los cambios son difíciles",
    "she_41": "Pero has tenido algunos últimamente, ¿no es así? ¿Por qué no intentar algo más grande?",
    "description_132": "Joy sonríe y te besa en la mejilla",
    "she_42": "Realmente tengo que ir. Nos vemos en el show",
    "description_133": "Cierra la puerta del auto y te deja solo",
    "description_134": "Bueno, eso ha sido un día",
    "description_135": "¿Te preguntas qué otras aventuras te esperan?..",
    "": "Tú"
  },
  "fr": {
    "description_1": "Aujourd'hui tu dois assister à la répétition de Joy",
    "description_2": "Elle prépare un nouveau spectacle",
    "description_3": "C'est assez complexe, mais le public sera ravi!",
    "description_4": "D'ailleurs, ce sera peut-être sa dernière prestation dans ce bar",
    "description_5": "Grâce à sa popularité, tu as pu l'emmener faire le tour des meilleurs endroits du pays",
    "description_6": "Elle mérite encore plus avec son talent et son travail acharné",
    "description_7": "Tu ne sais pas si elle va revenir ou se précipiter vers de nouveaux sommets",
    "description_8": "Ça te rend triste, mais cette tristesse est agréable",
    "description_9": "Après tout, tu as aidé une fille si talentueuse à percer dans le monde du show business",
    "description_10": "Elle ne pouvait pas rester dans ce bar pour toujours",
    "description_11": "Tu te connais depuis si longtemps, mais avant de la rencontrer tu étais nerveuse",
    "description_12": "Aussi les scènes de ce rêve surgissaient constamment dans ta tête",
    "description_13": "Elle est si jolie, et tu es toujours un homme",
    "description_14": "Pourquoi pas…",
    "description_15": "Non, draguer ta mentorée est une très mauvaise idée",
    "description_16": "Ton rêve t'a certainement fait une énorme impression",
    "description_17": "Si seulement tu avais l'opportunité d'en faire une réalité…",
    "description_18": "Oh",
    "description_19": "Mais c'est probablement mieux que les rêves restent des rêves",
    "description_20": "Tu as juste besoin de te concentrer sur le travail",
    "description_21": "Le bar karaoké est fermé aux visiteurs aujourd'hui",
    "description_22": "Toute la journée, les préparatifs pour une nouvelle représentation battaient leur plein, mais le soir, tout le monde s'était déjà dispersé, alors le bar te rencontre complètement vide et calme",
    "description_23": "Tu n'entends que Joy chanter venant de la scène",
    "description_24": "Elle t'appelle comme une sirène avec sa voix, et ton cœur commence à battre plus vite",
    "description_25": "\"Ressaisis-toi mec\"",
    "description_26": "Tu marches dans le couloir devant l'armoire directement sur la scène",
    "description_27": "Joy est tellement capturée par le chant qu'elle ne te remarque pas",
    "description_28": "Tu décides d'en profiter, la regardant sans vergogne depuis l'obscurité",
    "description_29": "Comme elle est belle…",
    "description_30": "Elle a l'air de briller sous les projecteurs et sa robe dessine sa forme de telle manière que tu ne peux pas la lâcher",
    "description_31": "Elle chante les yeux fermés et se déplace sur scène comme si des dizaines d'yeux la regardaient déjà",
    "description_32": "Mais il n'y a que toi, et aujourd'hui tu seras son seul spectateur",
    "description_33": "Et tu te dissouds dans sa voix pour en profiter, peut-être pour la dernière fois",
    "description_34": "Quand elle a fini, tu fais quelques claquements de mains",
    "description_35_1": "Joy tressaillit de surprise, les yeux ouverts, mais quand elle te voit, un sourire apparaît immédiatement sur son visage",
    "she_1": "Tu es en retard!",
    "person_answer_1_1": "J'ai vu l'essentiel du spectacle",
    "person_answer_1_2": "Je suis désolé, je suis arrivé ici aussi vite que j'ai pu",
    "person_answer_1_3": "J'avais d'autres choses à faire",
    "she_1_1": "Tu as raté la partie la plus intéressante",
    "she_2": "Qu'est-ce qui t'a pris autant de temps?",
    "you_1": "Travail",
    "description_35_2": "Tu lui mens, ce qui te met dans l'embarras, mais tu ne peux pas admettre que tu as retardé l'heure de venir au bar parce que tu n'arrivais pas à accepter un tas de pensées sur Joy",
    "description_36": "À propos de quand elle quittera ce bar",
    "description_37": "…et toi",
    "description_38": "À propos de ce rêve où ton imagination s'est déchaînée",
    "description_39": "Et à ce sujet aujourd'hui pourrait être le dernier jour où ces fantasmes peuvent devenir réalité",
    "she_3": "En fait, c'est aussi ton travail!",
    "description_40": "La joie rit, et pendant un moment, ça chasse toutes les pensées désagréables de ta tête, ce qui te fait sourire aussi",
    "description_41": "Ta performance… au moins sa fin…",
    "person_answer_2_1": "…à l'air cool",
    "person_answer_2_2": "…est tout simplement fantastique!",
    "person_answer_2_3": "…est bien en général",
    "she_4": "Tu ne peux pas du tout cacher tes émotions",
    "you_2": "Qu'est-ce que tu racontes?",
    "she_5": "Tu es triste",
    "description_42": "Eh bien, il est difficile de lui cacher quelque chose",
    "she_6": "Veux-tu chanter avec moi?",
    "she_7": "Chanter m'aide toujours",
    "you_3": "Mais… je ne peux pas le faire du tout. Je suis un producteur, pas un chanteur",
    "she_8": "Ce n'est pas si important. Je vais commencer et tu vas juste participer",
    "description_43": "Elle va au mélangeur de musique et allume la chanson",
    "description_44": "Tu le reconnais dès les premières notes - c'est ce que Joy a chanté à l'audition",
    "description_45": "Chanson sur l'amour…",
    "description_46": "Elle s'approche de toi et, te prenant la main, te conduit au micro",
    "description_47": "Tu commences prudemment, mais la voix de Joy te donne de la force",
    "description_48": "C'est comme s'il n'y avait plus que vous deux dans le monde - la musique vous a tellement captivé",
    "description_49": "Tu te demandes à quoi ou à qui elle pense? A propos de toi… ou pas?",
    "description_50": "Puis, les accords finaux sonnent, et la musique s'éteint",
    "she_9": "Merci pour la performance, partenaire",
    "description_51": "Elle sourit chaleureusement, te regarde et te demande avec une inquiétude sincère dans les yeux:",
    "she_10": "Tu te sens mieux?",
    "person_answer_3_1": "Oui, merci",
    "she_11": "Je te l'ai dit :) Mais j'ai autre chose pour te remonter le moral",
    "person_answer_3_2": "Je ne sais pas",
    "she_12": "Alors j'ai un autre moyen",
    "person_answer_3_3": "Je ne suis pas sûr…",
    "she_13": "Alors j'ai un autre moyen",
    "she_14": "Je vais me changer",
    "you_11": "Changer?",
    "she_15": "Tu as raté une de mes tenues les plus intéressantes",
    "description_52": "Joy se cache derrière les rideaux",
    "description_53": "Elle est absente, ce qui ressemble à une éternité - bien qu'il soit plus probable que tu sois si excité que le temps passe sans fin pour toi",
    "description_54": "Mais finalement elle sort en te souriant sournoisement, te laissant sans voix",
    "she_16": "Comment l'aimes-tu?",
    "description_55": "Elle te regarde avec impatience",
    "person_answer_4_1": "C'est très cool",
    "she_17": "Est-ce tout ce que tu peux dire?",
    "person_answer_4_2": "Assez provocateur",
    "she_18": "Tu n'as pas encore vu mon numéro de danse",
    "person_answer_4_3": "Je n'ai pas de mots",
    "she_19": "Et comment puis-je te faire parler?",
    "description_56": "Joy s'approche et fait quelques pas de danse dans un silence total",
    "you_4": "Ceci est incroyable",
    "you_5": "Tu es… incroyable",
    "description_57": "Elle fait semblant d'être gênée, alors qu'en fait c'est elle qui a voulu t'embarrasser",
    "description_58": "Et ça a bien marché",
    "description_59": "Parce que maintenant c'est dur pour toi de penser à la répétition, ou à la danse, ou quoi que ce soit d'autre",
    "description_60": "La musique recommence à jouer sur scène",
    "description_61": "Cette fois, c'est plus dynamique et dansant, mais toujours jazzy",
    "description_62": "Joy commence à chanter en dansant",
    "description_63": "Elle est comme flirter avec toi à travers cette danse",
    "description_64": "C'est peut-être parce qu'elle te regarde droit dans les yeux",
    "description_65": "Elle met son bras autour de ta taille, s'accroche à toi étroitement",
    "description_66": "Si elle danse comme ça devant le public… on dirait que tu es encore jaloux",
    "description_67": "Mais pour l'instant cette danse n'est dédiée qu'à toi",
    "description_68": "Après avoir terminé les dernières lignes, Joy sourit sournoisement et s'approche très près de toi, te regardant droit dans les yeux",
    "description_69": "Incapable de résister, tu…",
    "person_answer_5_1": "Se pencher pour l'embrasser sur le front",
    "person_answer_5_2": "Poses tes mains sur sa taille",
    "person_answer_5_3": "Tousses maladroitement",
    "description_70": "Les joues de Joy rougissent, et de façon totalement inattendue pour toi, elle demande:",
    "she_20": "Est-ce tout?",
    "description_71": "C'est toi qui es gêné maintenant, mais tu ne le montres pas et, l'attirant vers toi, tu l'embrasses à pleine bouche - doucement au début, mais le baiser devient de plus en plus passionné",
    "description_72": "Joy enroule ses bras autour de ton cou et tu t'embrasses, perdant la notion du temps",
    "description_73": "Tu ne peux qu'entendre comment ton rythme cardiaque résonne dans tout ton corps et à quel point Joy respire de manière irrégulière",
    "description_74": "Parvenant enfin à vous arracher l'un à l'autre, vous vous regardez à nouveau dans les yeux avec un sourire",
    "description_75": "Pendant que tu essaies de trouver des mots, Joy demande:",
    "she_21": "Veux-tu… continuer?",
    "description_76": "Qu'est-il arrivé à ce timide? Elle est juste méconnaissable",
    "description_77": "Elle a dû beaucoup apprendre de Miki",
    "description_78": "Joy commence à déboutonner ta chemise et s'arrête",
    "she_22": "Pourquoi es-tu silencieux?",
    "description_79": "Ton cœur bat si vite qu'il te donne le vertige",
    "description_80": "Joy te regarde",
    "description_81": "Tu comprends qu'elle attend de toi une initiative",
    "description_82": "Mais tout ce que tu as réussi à dire c'est:",
    "person_answer_6_1": "Ne t'arrête pas",
    "description_83": "Les yeux de Joy se sont littéralement illuminés",
    "person_answer_6_2": "Pardon. Je ne peux pas",
    "description_84": "La confusion a éclaté dans les yeux de Joy",
    "she_23": "Eh bien… je pensais que nous voulions la même chose",
    "she_24": "Mais je comprends que mélanger le travail et les relations n'est probablement pas la meilleure idée",
    "she_25": "Ne t'inquiète pas",
    "description_85": "Elle a souri sans même te regarder, mais tu dois la connaître assez bien pour savoir qu'elle était bouleversée",
    "description_86": "Incapable de supporter le silence, elle court dans les coulisses",
    "description_87": "Elle a juste besoin de temps. Tu pourrais aussi utiliser ce temps",
    "description_88": "Comment as-tu pu refuser une telle fille à cause de certains principes?!",
    "description_89": "En sautant de scène, tu sors un paquet de cigarettes de ta poche pour te vider un peu la tête et t'asseoir à l'une des tables",
    "description_90": "Il n'a pas fallu longtemps pour la convaincre",
    "description_91": "Elle déboutonne complètement ta chemise et elle tombe sur le sol de la scène",
    "description_92": "Joy caresse ta poitrine, descendant et descendant - jusqu'à la boucle de la ceinture",
    "description_93": "Réalisant que tu dois faire quelque chose, tu la prends dans tes bras et dézippe sa tenue",
    "description_94": "Joy ne s'en soucie clairement pas du tout et s'en débarrasse plus vite que tu ne peux rien faire d'autre",
    "description_95": "Seule une étroite bande de culotte reste sur elle",
    "description_96": "Tu l'embrasses encore, caressant ses seins",
    "description_97_1": "Quand tu glisses une main le long de son corps, Joy s'éloigne soudainement",
    "she_26": "Pas si vite. Je dois d'abord te rembourser",
    "you_6": "Pour quelle raison?",
    "she_27": "Eh bien, tu as fait de moi une star. Je ne pouvais même pas rêver d'une telle vie",
    "description_97_2": "Sur ces mots, Joy s'agenouille et détache ta ceinture",
    "description_98": "C'est incroyable comme tout ressemble à ce que tu as ressenti dans un rêve - ses mouvements sont doux et enveloppants, mais confiants en même temps",
    "description_99": "Elle sait exactement comment te plaire",
    "description_100": "Sentant la tension atteindre sa limite, tu dis:",
    "you_7": "Attends… Je voudrais…",
    "description_101": "Joy s'arrête immédiatement",
    "she_28": "Oh, alors tu veux autre chose? Nous pouvons l'arranger",
    "description_102": "Joy jette un coup d'œil autour de la scène et de l' auditorium, et ses yeux s'arrêtent sur le piano à queue",
    "description_103": "Et puis elle te regarde sournoisement",
    "she_29": "Je parie que tu n'as jamais eu quelque chose comme ça avant",
    "description_104": "Et elle a raison - tu ne l'as vraiment pas encore eu sur le piano à queue",
    "description_105": "Joy marche lentement vers ce, te laissant profiter de ses mouvements doux et fluides, et claque le couvercle",
    "description_106": "Assise sur le piano à queue, elle te regarde d'un air invitant et tu t'approches très près d'elle",
    "description_107": "Ses doigts touchent légèrement la peau, te donnant la chair de poule dans le dos",
    "you_12": "Mmm…",
    "description_108": "Tu es debout, n'osant pas bouger",
    "description_109": "Elle te serre si fort que tu peux sentir son cœur battre",
    "description_110": "Tu embrasses encore",
    "she_30": "S'il te plait… je te veux",
    "description_111": "Tu pousses sa culotte sur le côté et tu entres",
    "description_112": "Tu entres lentement, ne voulant pas lui faire de mal, mais ensuite tu accélères le rythme, incapable de te contenir",
    "description_113": "Joy répond à chacun de vos mouvements et gémit de plaisir",
    "description_114": "Ses hanches se lèvent comme si elle voulait se blottir encore plus contre tu",
    "description_115": "Tes mains caressent sa peau délicate, et elle enfouit ses doigts dans tes cheveux et ferme les yeux de plaisir",
    "description_116": "Tu as l'impression de te retenir à peine, et tu ralentis pour prolonger ce moment",
    "description_117": "Mais Joy s'exclame avec exigence:",
    "she_31": "Plus rapide!",
    "description_118": "Tu accélères le rythme, entends la respiration lourde de Joy, sens la chaleur de son corps",
    "description_119": "Enfin, un frisson vous parcourt tous les deux, et vous restez dans les bras l'un de l'autre",
    "description_120": "Joy respire fortement, mais le sourire ne quitte pas son visage",
    "she_32": "Tu es aussi bon au lit qu'à produire",
    "description_121": "Joy descend du piano à queue et t'embrasse sur les lèvres",
    "description_122": "Tout semble s'être terminé si vite…",
    "description_123": "Joy ramasse sa tenue par terre",
    "she_33": "Je vais aller dans les coulisses, me rafraîchir et me changer",
    "she_34": "Ne me manquez pas ;)",
    "description_124": "Tu entres dans le auditorium et t'assieds à l'une des tables en sortant un paquet de cigarettes de ta poche",
    "description_125": "Enfin Joy est revenue des coulisses - vêtue d'une robe",
    "she_35": "Au fait, tu as interrompu ma répétition ;) Je dois répéter quelques numéros de plus",
    "description_126": "Joy allume le mixeur de musique et commence à chanter, et tu l'admires à nouveau",
    "description_127": "Avec quelle fille incroyable le destin t'a réuni",
    "description_128": "Bien sûr, ce n'est pas quelque chose de sérieux - d'autant plus qu'elle va bientôt quitter ce bar",
    "description_129": "Mais l'aventure était juste incroyable",
    "description_130": "La répétition se termine et tu proposes de donner un ascenseur à Joy",
    "description_131": "Quand tu es déjà près d'elle, tu restes tous les deux dans la voiture, n'osant pas partir",
    "she_36": "Tu viens à mon dernier spectacle?",
    "you_8": "Bien sûr. C'est peut-être ma dernière chance de te voir avant que tu quittes la ville",
    "you_9": "Peut-être qu'on ne se reverra même plus",
    "she_37": "Tu es trop pessimiste. Nous avons les numéros de téléphone les uns des autres, et ma tournée ne prendra pas une éternité",
    "she_38": "Je suis vraiment attaché à cette ville, donc je reviendrai certainement",
    "she_39": "Mais une autre question est de savoir si tu restes ici à ce moment",
    "she_40": "Je pense que tu as depuis longtemps dépassé ce bar et cette ville",
    "you_10": "Je n'y ai même pas pensé. Les changements sont difficiles",
    "she_41": "Mais tu en as eu dernièrement, n'est-ce pas? Pourquoi ne pas essayer quelque chose de plus grand?",
    "description_132": "Joy sourit et t'embrasse sur la joue",
    "she_42": "Je dois vraiment y aller. On se voit au spectacle",
    "description_133": "Elle ferme la portière de la voiture et te laisse seul",
    "description_134": "Eh bien, ça fait un jour",
    "description_135": "Tu te demandes quelles autres aventures t'attendent?..",
    "": "Tu"
  }
}