%YAML 1.1
%TAG !u! tag:unity3d.com,2011:
--- !u!114 &11400000
MonoBehaviour:
  m_ObjectHideFlags: 0
  m_CorrespondingSourceObject: {fileID: 0}
  m_PrefabInstance: {fileID: 0}
  m_PrefabAsset: {fileID: 0}
  m_GameObject: {fileID: 0}
  m_Enabled: 1
  m_EditorHideFlags: 0
  m_Script: {fileID: 11500000, guid: c566b735405e0c04680cb034d0807bf9, type: 3}
  m_Name: Look Upgrade Item 002
  m_EditorClassIdentifier: 
  Id: ec077b30-ef6b-444d-8b5b-4bbf055d41db
  Name: Look3
  Description: 
  itemType: 0
  _icon: {fileID: 21300000, guid: 8499a1c21074ff04b949828b5ee83762, type: 3}
  _metaForContentDisplay:
  - rnb
