%YAML 1.1
%TAG !u! tag:unity3d.com,2011:
--- !u!114 &11400000
MonoBehaviour:
  m_ObjectHideFlags: 0
  m_CorrespondingSourceObject: {fileID: 0}
  m_PrefabInstance: {fileID: 0}
  m_PrefabAsset: {fileID: 0}
  m_GameObject: {fileID: 0}
  m_Enabled: 1
  m_EditorHideFlags: 0
  m_Script: {fileID: 11500000, guid: 0687663482eeb914aafb44ed63762dce, type: 3}
  m_Name: Iap Item 005
  m_EditorClassIdentifier: 
  ProductId: bigmoneypack
  UnlockType: 0
  ButtonSize: 0
  Name: + 40 000
  NameAdditional: + 10 000
  Description: 
  DescriptionAdditional: 
  DescriptionIcon: {fileID: 0}
  Icon: {fileID: 21300000, guid: 11a9d6d959caecd41b2b4b838b3826d2, type: 3}
  ProductType: 0
  AnalyticsId: money_50000
  UnlockGalleryDatas: []
  UnlockJewelryItemDatas: []
