%YAML 1.1
%TAG !u! tag:unity3d.com,2011:
--- !u!114 &11400000
MonoBehaviour:
  m_ObjectHideFlags: 0
  m_CorrespondingSourceObject: {fileID: 0}
  m_PrefabInstance: {fileID: 0}
  m_PrefabAsset: {fileID: 0}
  m_GameObject: {fileID: 0}
  m_Enabled: 1
  m_EditorHideFlags: 0
  m_Script: {fileID: 11500000, guid: e6a3e27912f34d44fb0a432c8663daed, type: 3}
  m_Name: TSV Parser
  m_EditorClassIdentifier: 
  debug:
    keys: 0
    values: 0
    createdJSON: 0
  TSVText: {fileID: 102900000, guid: 7c329e318928fb841bbf37b4efe59aae, type: 3}
  folder: {fileID: 102900000, guid: 905c612e4e006e84e89b005eea7a50e6, type: 3}
