%YAML 1.1
%TAG !u! tag:unity3d.com,2011:
--- !u!114 &11400000
MonoBehaviour:
  m_ObjectHideFlags: 0
  m_CorrespondingSourceObject: {fileID: 0}
  m_PrefabInstance: {fileID: 0}
  m_PrefabAsset: {fileID: 0}
  m_GameObject: {fileID: 0}
  m_Enabled: 1
  m_EditorHideFlags: 0
  m_Script: {fileID: 11500000, guid: f1b3b4b945939a54ea0b23d3396115fb, type: 3}
  m_Name: "\u0441\u0442\u043E\u0440\u0438\u0437 \u0438\u0441\u0445\u043E\u0434\u043D\u0438\u043A_SkeletonData"
  m_EditorClassIdentifier: 
  atlasAssets:
  - {fileID: 11400000, guid: 2fc1fae9b3af5224fa3b84a4081170ba, type: 2}
  scale: 0.007
  skeletonJSON: {fileID: 4900000, guid: deda6c7c631c5bc499909847632ef2ea, type: 3}
  isUpgradingBlendModeMaterials: 0
  blendModeMaterials:
    requiresBlendModeMaterials: 0
    applyAdditiveMaterial: 0
    additiveMaterials: []
    multiplyMaterials: []
    screenMaterials: []
  skeletonDataModifiers: []
  fromAnimation: []
  toAnimation: []
  duration: []
  defaultMix: 0.2
  controller: {fileID: 0}
