%YAML 1.1
%TAG !u! tag:unity3d.com,2011:
--- !u!114 &11400000
MonoBehaviour:
  m_ObjectHideFlags: 0
  m_CorrespondingSourceObject: {fileID: 0}
  m_PrefabInstance: {fileID: 0}
  m_PrefabAsset: {fileID: 0}
  m_GameObject: {fileID: 0}
  m_Enabled: 1
  m_EditorHideFlags: 0
  m_Script: {fileID: 11500000, guid: 14a461f14c0d9ca458100eedee0fb2f4, type: 3}
  m_Name: Jewelry Item 003
  m_EditorClassIdentifier: 
  Id: da54120b-136c-4122-a55c-9cd8f4bf272a
  Name: Level3
  Description: Desc
  AB: 0
  passiveType: 4
  _icon: {fileID: 21300000, guid: 26cc86846477a6d4a99155b5d91f1e18, type: 3}
  _iconLock: {fileID: 21300000, guid: 519233845781600438053032c8d0e595, type: 3}
  _skinName: '#3'
  _attachments:
  - SlotName: leg_left_top
    AttachName: leg_left_top
  - SlotName: leg_right 2
    AttachName: leg_right 2
  - SlotName: leg_right
    AttachName: leg_right
  - SlotName: leg_left_bottom
    AttachName: leg_left_bottom
