%YAML 1.1
%TAG !u! tag:unity3d.com,2011:
--- !u!114 &11400000
MonoBehaviour:
  m_ObjectHideFlags: 0
  m_CorrespondingSourceObject: {fileID: 0}
  m_PrefabInstance: {fileID: 0}
  m_PrefabAsset: {fileID: 0}
  m_GameObject: {fileID: 0}
  m_Enabled: 1
  m_EditorHideFlags: 0
  m_Script: {fileID: 11500000, guid: e13c3b4839305ab4fa0efb15f2eb9683, type: 3}
  m_Name: Story Data 003
  m_EditorClassIdentifier: 
  Id: 3f86d443-f4ec-43a5-a373-5c3acf11b600
  Name: Story_3
  Description: Desc_3
  LocalePath: Girl_1_Story_1
  DialogGraph: {fileID: 11400000, guid: b5479c6234ada0543a42edce20bb638c, type: 2}
  Icon: {fileID: 21300000, guid: 76ed9bada7a2a2244a0b422f1fe621c8, type: 3}
  Icon_AB: {fileID: 21300000, guid: 12e9168c9555c3447af08770254a5ba1, type: 3}
  IsInDevelopment: 0
