%YAML 1.1
%TAG !u! tag:unity3d.com,2011:
--- !u!114 &11400000
MonoBehaviour:
  m_ObjectHideFlags: 0
  m_CorrespondingSourceObject: {fileID: 0}
  m_PrefabInstance: {fileID: 0}
  m_PrefabAsset: {fileID: 0}
  m_GameObject: {fileID: 0}
  m_Enabled: 1
  m_EditorHideFlags: 0
  m_Script: {fileID: 11500000, guid: 0687663482eeb914aafb44ed63762dce, type: 3}
  m_Name: Iap Item 005
  m_EditorClassIdentifier: 
  ProductId: coinspack
  UnlockType: 0
  ButtonSize: 0
  Name: + 10 000
  Description: 
  Icon: {fileID: 21300000, guid: 4877f31af86c6144b940dc771172500e, type: 3}
  ProductType: 0
