%YAML 1.1
%TAG !u! tag:unity3d.com,2011:
--- !u!114 &11400000
MonoBehaviour:
  m_ObjectHideFlags: 0
  m_CorrespondingSourceObject: {fileID: 0}
  m_PrefabInstance: {fileID: 0}
  m_PrefabAsset: {fileID: 0}
  m_GameObject: {fileID: 0}
  m_Enabled: 1
  m_EditorHideFlags: 0
  m_Script: {fileID: 11500000, guid: 14a461f14c0d9ca458100eedee0fb2f4, type: 3}
  m_Name: Jewelry Item 003
  m_EditorClassIdentifier: 
  Id: 85e6bcab-aa4d-4b4e-a257-5ac452680c7b
  Name: Level3
  Description: Desc
  AB: 0
  passiveType: 3
  _icon: {fileID: 21300000, guid: c9d3cfa7a60c5fa4d8589519f5f667c8, type: 3}
  _iconLock: {fileID: 21300000, guid: 519233845781600438053032c8d0e595, type: 3}
  _skinName: '#3'
  _attachments:
  - SlotName: hand
    AttachName: hand
  - SlotName: body
    AttachName: body
